Ria
Alberto
Anna

iaR

Satya

Spongebob

Chandler

Sokka

Angela

Waffle

Harry Potter
Albus Dumbledore
Dobby
Lucius Malfoy
Draco Malfoy
Hermione Granger
Ron Weasly
Luna Lovegood
Voldemort
Hagrid
Hedwig
Mad Eye Moody
Gryffindor
Slytherin
Ravenclaw
Hufflepuff
Beatrix Lastrange
Sirus Black
Professor Mcgonagall
